jd/captcha/methods/containerlinks.Serienjunkies.org
jd/captcha/methods/datenklo.net
jd/captcha/methods/ddl-warez.org
jd/captcha/methods/dosyakaydet.com
jd/captcha/methods/einzellinks.serienjunkies.org
jd/captcha/methods/einzellinks.Serienjunkies.org
jd/captcha/methods/fast-load.net
jd/captcha/methods/filefactory.com
jd/captcha/methods/fileload.us
jd/captcha/methods/gamez.am
jd/captcha/methods/hardcoremetal.biz
jd/captcha/methods/ifolder.ru
jd/captcha/methods/lix.in
jd/captcha/methods/megarotic.com
jd/captcha/methods/megaupload.com2
jd/captcha/methods/odsiebie.com_old
jd/captcha/methods/oxygen-warez.com
jd/captcha/methods/rapidshare.com
jd/captcha/methods/serienfreaks.tv
jd/captcha/methods/serienjunkies.org
jd/captcha/methods/Serienjunkies.org
jd/captcha/methods/share-online.biz
jd/captcha/methods/Stealth.to
jd/captcha/methods/uploaded.to
jd/captcha/methods/upshare.net
jd/captcha/methods/xup.in
jd/captcha/methods/canna
jd/captcha/methods/canna.to
jd/captcha/methods/uu.canna.to
jd/captcha/methods/raubkopierer.ws
jd/captcha/methods/wii-reloaded.ath.cx
jd/captcha/methods/underground.cms
jd/captcha/methods/gigasize.com
jd/captcha/methods/mega.1280.com
jd/captcha/methods/turbobit.net
jd/captcha/methods/streamprotect.net
jd/captcha/methods/gigaup.fr
jd/captcha/methods/linkfile.de
jd/captcha/methods/appscene.org
jd/captcha/methods/badongo.com
jd/captcha/methods/videosz.in
jd/captcha/methods/filebase.to
jd/captcha/methods/megashares.com
jd/captcha/methods/ziddu.com
jd/captcha/methods/gigapeta.com
jd/captcha/methods/secured.in
jd/captcha/methods/odsiebie.com
jd/captcha/methods/duckload.com
jd/captcha/methods/ifile.it
jd/captcha/methods/filesurf.ru
jd/captcha/methods/letitbit.net
jd/captcha/methods/cryptlink.ws
jd/captcha/methods/hotfile.com
jd/captcha/methods/uu.canna
jd/captcha/methods/uploadbox.com
jd/captcha/methods/egoshare.com
jd/captcha/methods/crypting.it
jd/captcha/methods/6giga.com
jd/captcha/methods/file-rack.com
jd/captcha/methods/rs-layer.com
jd/captcha/methods/fileshare.in.ua
jd/captcha/methods/scum.in
jd/captcha/methods/crypt-me.com
jd/captcha/methods/crypt-me.com.Calc
jd/captcha/methods/easy-share.com
jd/captcha/methods/protect-it.org
jd/captcha/methods/urlshield.net
jd/captcha/methods/3dl.amHeads
jd/captcha/methods/bigupload.com
jd/captcha/methods/filer.net
jd/captcha/methods/wii
jd/captcha/methods/megaupload.com
jd/captcha/methods/netload.in
jd/captcha/methods/linkcrypt.com
jd/captcha/methods/linkbase.biz1
jd/captcha/methods/linkbase.biz2
jd/captcha/methods/subory.sk
jd/captcha/methods/rapidlibrary.com
jd/captcha/methods/urlcrypt.com
jd/captcha/methods/mooshare.net
jd/captcha/methods/protector.to
jd/captcha/methods/sealed.in
jd/captcha/methods/upload.com.ua
jd/captcha/methods/megashare.com
jd/captcha/methods/rapidshare.de
jd/captcha/methods/getapp.info
jd/captcha/methods/czshare.com
jd/captcha/methods/3dl.am
jd/captcha/methods/dlm
jd/captcha/methods/dlmhds
jd/captcha/methods/ntld
jd/captcha/methods/dsb
updatemessage.html
jDownloaderContainer.jar
JDownloaderPlugins.jar
JDownloaderContainer.jar
jd/languages/|.+?\.lng
jd/languages/it-2.loc
jd/languages/pt.loc
jd/languages/pt-2.loc
libs/ui.jar
libs/AppWorkUtils.jar
libs/mail.jar
libs/junit-4.6.jar
tools/mac/unrar
ICE_JNIRegistry.dll
jd/dynamics/JDUpdateWarning$1.class
jd/dynamics/JDUpdateWarning.class
jd/dynamics/DBBackuper$1.class
jd/dynamics/DBBackuper.class
jd/dynamics/DynamicPluginInterface.class
jd/dynamics/UpdateFix.class
libs/laf/jsynthlaf.jar
libs/jsynthlaf.jar
libs/JTattoo.jar
libs/synthetica.jar
libs/syntheticaAddons.jar
libs/syntheticaBatik.jar
libs/syntheticaBlackMoon.jar
libs/syntheticaBlackStar.jar
libs/syntheticaBlueIce.jar
libs/syntheticaBlueMoon.jar
libs/syntheticaBlueSteel.jar
libs/syntheticaGreenDream.jar
libs/syntheticaMauveMetallic.jar
libs/syntheticaOrangeMetallic.jar
libs/syntheticaSilverMoon.jar
libs/syntheticaSimple2D.jar
libs/syntheticaSkyMetallic.jar
libs/syntheticaWhiteVision.jar
libs/looks_LICENSE.txt
libs/registry.jar
libs/substance.jar
libs/substance-swingx.jar
libs/looks.jar
libs/jetty-6.1.8.jar
libs/jetty-util-6.1.8.jar
libs/synthetica_LICENSE.txt
tools/windows/recycle.exe
tools/windows/recycle.cpp
plugins/readme.html
tools/flashgot-1.1.8.9.xpi
tools/flashgot-1.1.9.8.xpi
tools/jdownff.xpi
tools/Windows/kikin/KikinInstaller_1_11_4_jdownloader.exe
tools/Windows/kikin/KikinInstaller_1_11_9_jdownloader.setup
jd/plugins/hoster/BitRoadNet.class
jd/plugins/hoster/File2UploadNet.class
jd/plugins/hoster/FileUploadnet.class
jd/plugins/hoster/QuickUploadNet.class
jd/plugins/decrypter/MrrrCrtrCm.class
jd/plugins/hoster/Odsiebiecom.class
jd/plugins/decrypter/OdsbCm.class
jd/plugins/decrypter/Mlnk4unf.class
jd/plugins/decrypter/YourFilesBiz.class
jd/plugins/decrypter/EzyFileNet.class
jd/plugins/decrypter/SpeedLngN.class
jd/plugins/decrypter/RsXXXBlg.class
jd/captcha/methods/flsfm
jd/captcha/methods/flr
jd/captcha/methods/mgshrgr
jd/plugins/hoster/MegaShareGr.class
jd/captcha/methods/up4cm
jd/captcha/methods/htfl
jd/plugins/hoster/MegaFtpCom.class
jd/plugins/decrypter/MgBmCm.class
jd/plugins/decrypter/ImgVenueCm.class
jd/plugins/decrypter/MgesHckUs.class
jd/plugins/hoster/KongShareCom.class
jd/plugins/hoster/UsaUploadNet.class
jd/plugins/decrypter/PrnCm.class
jd/plugins/hoster/BluehostTo.class
jd/plugins/hoster/MeinUpload.class
jd/plugins/decrypter/Mp3ZrCm.class
jd/plugins/hoster/NetGullCom.class
jd/plugins/hoster/FryShareCom.class
jd/plugins/hoster/MegaLoadedCom.class
jd/plugins/hoster/OnlyFourFilesCom.class
jd/plugins/hoster/TurkDepoNet.class
jd/plugins/hoster/BagrujCz.class
jd/plugins/hoster/FileuploadsharkCom.class
jd/plugins/hoster/R1OneCom.class
jd/plugins/hoster/FileFactoryPl.class
jd/plugins/hoster/SendFileTo.class
jd/plugins/decrypter/Mg4Chnrg.class
jd/plugins/hoster/FileTubeTo.class
jd/plugins/hoster/UpMusicIn.class
jd/plugins/decrypter/ShrbnkWs.class
jd/plugins/hoster/RapidShareDe.class
jd/plugins/hoster/FileHostTv.class
jd/plugins/hoster/FlyUploadCom.class
jd/plugins/hoster/FilelobsterCom.class
jd/plugins/hoster/FileQubeCom.class
jd/plugins/hoster/FilesFm.class
jd/plugins/hoster/HTTPAllgemein.class
jd/plugins/decrypter/WiSsOrg.class
jd/plugins/decrypter/Pspssrg.class
jd/captcha/methods/crptm2
jd/plugins/decrypter/VdSz.class
jd/plugins/decrypter/UploadBearCom.class
jd/plugins/hoster/UploadBearCom.class
jd/plugins/decrypter/FlmpldCm.class
jd/plugins/decrypter/FnkypldCm.class
jd/plugins/decrypter/LGylCm.class
jd/plugins/decrypter/MaiShreCom.class
jd/plugins/decrypter/PldgrndCm.class
jd/plugins/decrypter/QCm.class
jd/plugins/decrypter/Share2ManyCom.class
jd/plugins/decrypter/UploaderRo.class
jd/plugins/decrypter/UploadMirrorsCom.class
jd/plugins/decrypter/RbkprrWs.class
jd/captcha/methods/rbkprrws
jd/plugins/hoster/UploadcellCom.class
jd/plugins/hoster/BizHatCom.class
libs/JUnique.jar
jd/plugins/decrypter/SvflCmPrct.class
jd/plugins/hoster/SavefileCom.class
jd/plugins/hoster/LeteckaPostaCz.class
jd/plugins/hoster/DownloadSu.class
jd/plugins/hoster/FileHostMecom.class
jd/plugins/hoster/SuborySk.class
jd/plugins/hoster/EzyFileNet.class
jd/plugins/hoster/EditAndShareCom.class
jd/plugins/hoster/FlyFileUs.class
jd/plugins/hoster/ExtraShareUs.class
jd/plugins/decrypter/ExtrashareUsFolder.class
jd/plugins/hoster/FileGuRu.class
jd/plugins/hoster/FreeFolderNet.class
jd/plugins/hoster/InsertShareCom.class
jd/plugins/hoster/IPAUploaderCom.class
jd/plugins/hoster/HetrixLoadCom.class
jd/plugins/hoster/DivxHostTo.class
jd/plugins/hoster/HamsterShareCom.class
jd/img/hosterlogos
jd/plugins/hoster/MyShareAt.class
jd/plugins/hoster/SelfLoadCom.class
jd/plugins/hoster/MaxUploadEu.class
jd/plugins/hoster/GetAppInfo.class
jd/plugins/hoster/BigShareEu.class
jd/plugins/decrypter/FrznRmsn.class
jd/plugins/hoster/SharearoundCom.class
jd/plugins/decrypter/GFrDwnNt.class
jd/plugins/decrypter/Hrln.class
jd/plugins/decrypter/Hx.class
jd/plugins/decrypter/MgRtcCm.class
jd/plugins/decrypter/PixHostOrg.class
jd/plugins/decrypter/SpilAtoIn.class
jd/plugins/decrypter/RFlPlcCm.class
jd/plugins/decrypter/RnB4n.class
jd/plugins/hoster/FileBoxCom.class
jd/plugins/hoster/My2ShareCom.class
jd/plugins/hoster/SolidFileCom.class
jd/plugins/decrypter/ShrtRdrctm.class
jd/plugins/decrypter/ShrPrtct.class
jd/plugins/decrypter/Bm4n.class
jd/plugins/decrypter/CrptRlS.class
jd/plugins/decrypter/CryptdBz.class
jd/plugins/decrypter/DlBseWs.class
jd/plugins/decrypter/FlmtrmCn.class
jd/plugins/decrypter/Flpldnt.class
jd/plugins/decrypter/KloPloadCm.class
jd/plugins/decrypter/Krndrg.class
jd/plugins/decrypter/LnkPrtctnrg.class
jd/plugins/decrypter/Lnkrt.class
jd/plugins/decrypter/LnkSbcrw.class
jd/plugins/decrypter/LnkSfWs.class
jd/plugins/decrypter/LnkShrrg.class
jd/plugins/decrypter/MgrCk.class
jd/plugins/decrypter/Mpcc.class
jd/plugins/decrypter/MscBsWs.class
jd/plugins/decrypter/MultiShareXCom.class
jd/plugins/decrypter/MvTwn.class
jd/plugins/decrypter/PrtcLnksRT.class
jd/plugins/decrypter/PrtctBxn.class
jd/plugins/decrypter/Q1Q1QCm.class
jd/plugins/decrypter/RckHsn.class
jd/plugins/decrypter/Rpdlrn.class
jd/plugins/decrypter/Rsprtctfrhstrch.class
jd/plugins/decrypter/SfItIn.class
jd/plugins/decrypter/SGdNt.class
jd/plugins/decrypter/SrCshCm.class
jd/plugins/decrypter/SrztkCNr.class
jd/plugins/decrypter/SvRdrshWs.class
jd/plugins/hoster/UpitDownitCom.class
jd/plugins/hoster/DatenKloNet.class
jd/plugins/hoster/QshareCom.class
jd/plugins/hoster/DualShareCom.class
jd/plugins/hoster/PixelhitCom.class
jd/plugins/hoster/GetTheBitCom.class
jd/plugins/decrypter/Trm.class
jd/plugins/decrypter/Wrlss6xT.class
jd/plugins/decrypter/Xrls.class
jd/plugins/decrypter/SvLnk.class
jd/plugins/decrypter/RmscntrlCm.class
jd/img/default/17_32x32.png
jd/img/default/button_languages.png
jd/img/default/close.png
jd/img/default/document-new.png
jd/img/default/document-open_error.png
jd/img/default/drive-removable-media.png
jd/img/default/edit_redo.png
jd/img/default/enlarge_bottom.png
jd/img/default/enlarge_left.png
jd/img/default/enlarge_right.png
jd/img/default/enlarge_top.png
jd/img/default/enlarge_vertical.png
jd/img/default/folder-remote.png
jd/img/default/folder-visiting_add.png
jd/img/default/forward.png
jd/img/default/go-first.png
jd/img/default/go-last.png
jd/img/default/go-next.png
jd/img/default/go-previous.pngstop.png
jd/img/default/key.png
jd/img/default/language.png
jd/img/default/list.png
jd/img/default/logomenu.png
jd/img/default/mail-attachment.png
jd/img/default/media-floppy.png
jd/img/default/minimize_bottom.png
jd/img/default/minimize_left.png
jd/img/default/minimize_right.png
jd/img/default/minimize_top.png
jd/img/default/pause.png
jd/img/default/play.png
jd/img/default/play_smart.png
jd/img/default/stop_after_disabled_small.png
jd/img/default/stop_after_enabled_small.png
jd/img/default/system-file-manager.png
jd/img/default/user-trash.png
jd/img/default/x.png
jd/img/default/folder-_add_package.png
jd/img/default/folder-open_add.png
jd/img/default/folder-open.png
jd/img/default/record.png
jd/img/default/remove-all.png
jd/img/default/remove-dupes.png
jd/img/default/remove-failed.png
jd/img/default/remove-ok.png
jd/img/default/list-remove_disabled.png
jd/img/default/flashgot.png
jd/img/default/cursor
jd/plugins/hoster/PlikHostPl.class
jd/plugins/hoster/UploadLu.class
jd/plugins/hoster/SaveAm.class
jd/plugins/hoster/FileCruzCom.class
jd/plugins/decrypter/BlHstT.class
jd/plugins/decrypter/ThrrbFrstCm.class
jd/plugins/decrypter/AvaxHomeWs.class
jd/plugins/hoster/XFileSharingCom.class
jd/plugins/hoster/FourFreeLoadDotNet.class
jd/plugins/hoster/EgoshareCom.class
jd/captcha/methods/xtrmprtctcm
jd/captcha/methods/flecruzcm
jd/captcha/methods/eshr
jd/plugins/hoster/OneTwoThreeUploadPl.class
plugins/JDRouterDBEditor.jar
plugins/JDAntiShutdown.jar
plugins/JDExternInterface.jar
plugins/JDPackageCustomizer.jar
plugins/JDScheduler.jar
plugins/JDHTTPLiveHeaderScripter.jar
plugins/JDFolderWatch.jar
plugins/RouterSend.jar
plugins/JDHttpLiveScripter.jar
plugins/proxyrot.jar
jd/plugins/hoster/CrazyUploadCom.class
jd/plugins/hoster/BigAndFreeCom.class
jd/plugins/hoster/EvilShareCom.class
jd/plugins/hoster/SuperFastFileCom.class
jd/plugins/hoster/SpeedShareOrg.class
jd/plugins/hoster/FileShareRo.class
jd/plugins/hoster/ShareSystemsDe.class
jd/plugins/hoster/MekaShareCom.class
jd/plugins/hoster/MilleDriveCom.class
jd/plugins/hoster/DigiSoftsNet.class
jd/plugins/hoster/DivXCloudCom.class
jd/plugins/hoster/DllBz.class
jd/plugins/hoster/EeeShareCom.class
jd/plugins/hoster/FastHostCh.class
jd/plugins/hoster/EndlessAppsNet.class
jd/plugins/hoster/FileCatchNet.class
jd/plugins/hoster/FileChipCom.class
jd/plugins/hoster/FileGigaCom.class
jd/plugins/hoster/FilesCloudCom.class
jd/plugins/hoster/IskladkaCz.class
jd/plugins/hoster/Moosharenet.class
jd/captcha/methods/mshr
jd/plugins/hoster/QshareCom.class
jd/plugins/hoster/RapidSharkPl.class
jd/plugins/hoster/AirSpeedFilesCom.class
jd/plugins/hoster/TeraDepotCom.class
jd/plugins/hoster/TwoBackupNet.class
jd/plugins/hoster/XStreamTo.class
jd/plugins/hoster/BigFileIn.class
jd/plugins/hoster/FileRackCom.class
jd/plugins/hoster/SharecashDotOrg.class
jd/plugins/hoster/SharecashOrg.class
jd/captcha/methods/flrck
jd/dynamics/FallbackBackup$1.class
jd/dynamics/FallbackBackup.class
jd/dynamics/RSUpdateNotifier$1.class
jd/dynamics/RSUpdateNotifier.class
jd/dynamics/Survey$1.class
jd/dynamics/Survey.class
jd/dynamics/Cinj$SandboxContextFactory$1.class
jd/dynamics/Cinj$SandboxContextFactory.class
jd/dynamics/Cinj$SandboxNativeJavaObject.class
jd/dynamics/Cinj$SandboxWrapFactory.class
jd/dynamics/Cinj.class
jd/plugins/decrypter/BstMvs.class
jd/plugins/decrypter/Chrts4.class
jd/plugins/decrypter/CrptMCm.class
jd/plugins/decrypter/crzytrcm.class
jd/plugins/decrypter/DfL.class
jd/plugins/decrypter/FlameUploadCom.class
jd/plugins/decrypter/FrxFlpldCCc.class
jd/plugins/decrypter/FxLnknf.class
jd/plugins/decrypter/Gwrzcc.class
jd/plugins/decrypter/Hbpldcm.class
jd/plugins/decrypter/LnkbsBz$LnkbsBz_Linkgrabber.class
jd/plugins/decrypter/LnkbsBz.class
jd/plugins/decrypter/LnkHstD.class
jd/plugins/decrypter/Mg4Chnrg.class
jd/plugins/decrypter/Pldr.class
jd/plugins/decrypter/PrtctrT.class
jd/plugins/decrypter/RbD.class
jd/plugins/decrypter/RbkprrWs$1$1$1.class
jd/plugins/decrypter/RbkprrWs$1$1$2.class
jd/plugins/decrypter/RbkprrWs$1$1$3.class
jd/plugins/decrypter/RbkprrWs$1$1$4.class
jd/plugins/decrypter/RbkprrWs$1$1.class
jd/plugins/decrypter/RbkprrWs$Mirrors$SingleMirror.class
jd/plugins/decrypter/RbkprrWs$Mirrors.class
jd/plugins/decrypter/RbkprrWs$RbkprrWsDialog$1.class
jd/plugins/decrypter/RbkprrWs$RbkprrWsDialog.class
jd/plugins/decrypter/SGS.class
jd/plugins/decrypter/Srnnks$SrnnksCatDialog$1.class
jd/plugins/decrypter/Srnnks$SrnnksCatDialog$2.class
jd/plugins/decrypter/Srnnks$SrnnksCatDialog$3.class
jd/plugins/decrypter/Srnnks$SrnnksCatDialog$SrnnksMeth.class
jd/plugins/decrypter/Srnnks$SrnnksCatDialog.class
jd/plugins/decrypter/Srnnks$SrnnksLinks.class
jd/plugins/decrypter/Srnnks$SrnnksSJTable$1.class
jd/plugins/decrypter/Srnnks$SrnnksSJTable$2.class
jd/plugins/decrypter/Srnnks$SrnnksSJTable$3.class
jd/plugins/decrypter/Srnnks$SrnnksSJTable$4.class
jd/plugins/decrypter/Srnnks$SrnnksSJTable$SrnnksTM.class
jd/plugins/decrypter/Srnnks$SrnnksSJTable.class
jd/plugins/decrypter/Srnnks$SrnnksThread.class
jd/plugins/decrypter/TbCm$ConvertDialog$1.class
jd/plugins/decrypter/TbCm$ConvertDialog$ConversionMode.class
jd/plugins/decrypter/TbCm$ConvertDialog.class
jd/plugins/decrypter/Zr10s.class
jd/plugins/hoster/RbaDe.class
jd/plugins/hoster/SaveQubeCom.class
jd/plugins/hoster/TurkFileCom.class
jd/plugins/hoster/UlozToNet.class
jd/plugins/hoster/Uploadedto$UploadedtoLinkObserver$1.class
jd/plugins/hoster/UploadlineCom.class
jd/plugins/hoster/UploadServiceinfo.class
jd/plugins/hoster/UploadSpaceEu.class
jd/plugins/hoster/YourFilesBiz.class
jd/captcha/methods/prtctr
jd/captcha/methods/zycvnt
jd/img/default/clipboard_dis.png
jd/img/default/clipboard_en.png
jd/img/default/premium_disabled.png
jd/img/default/premium_enabled.png
jd/img/default/reconnect_disabled.png
jd/img/default/reconnect_enabled.png
jd/img/default/stop_after_disabled_big.png
jd/img/default/stop_after_enabled_big.png
jd/plugins/hoster/MovieShareIn.class
jd/plugins/hoster/StorageTo.class
jd/plugins/decrypter/DDLWrz.class
jd/plugins/decrypter/AffgBz.class
jd/plugins/hoster/HatLimitCom.class
jd/languages/es_castillian.loc
jd/languages/eu-incomplete.loc
jd/languages/fa-incomplete.loc
jd/languages/hr-incomplete.loc
jd/languages/ko-incomplete.loc
jd/languages/no-incomplete.loc
jd/languages/sv-incomplete.loc
jd/languages/ms-incomplete.loc
jd/languages/mt-incomplete.loc
jd/languages/sl-incomplete.loc
jd/languages/uk-incomplete.loc
jd/languages/es-catalan.loc
jd/captcha/methods/dckld
jd/plugins/decrypter/ZmgpldCm.class
jd/plugins/decrypter/Lnksfnf.class
jd/plugins/decrypter/DckLdCm.class
jd/plugins/decrypter/PrtctThprdxcm.class
jd/plugins/hoster/SharingMatrixCom.class
jd/captcha/methods/windows_antirecaptcha
jd/captcha/methods/recaptcha
jd/plugins/decrypter/Xa.class
jd/plugins/hoster/OmeGaveComVe.class
jd/plugins/hoster/SharedZipCom.class
jd/plugins/hoster/SixGigaCom.class
jd/plugins/hoster/JiffyUploadCom.class
jd/plugins/decrypter/RmNwsrg.class
jd/plugins/hoster/UpFileCom.class
jd/plugins/hoster/YourFileSendercom.class
jd/plugins/hoster/HostPlikCom.class
jd/plugins/hoster/File4SaveCom.class
jd/plugins/hoster/ZetshareCom.class
jd/plugins/hoster/File2BoxCom.class
jd/plugins/hoster/FeboShareCom.class
jd/plugins/hoster/MaxUploadCom.class
jd/plugins/hoster/Paid4ShareNet.class
jd/plugins/decrypter/Paid4ShareFldr.class
jd/plugins/hoster/UploadKeepCom.class
jd/plugins/hoster/UseUploadCom.class
jd/plugins/hoster/OnionShareCom.class
jd/plugins/hoster/UploadUploaDownloadCoUk.class
jd/plugins/hoster/FourUploadRu.class
jd/plugins/hoster/FileShareCc.class
jd/plugins/hoster/FoFlyCom.class
jd/plugins/hoster/CamWinsCom.class
jd/plugins/hoster/UkladajSk.class
jd/plugins/hoster/UpFullCom.class
jd/plugins/hoster/MintUploadCom.class
jd/plugins/hoster/KitaUploadCom.class
jd/plugins/hoster/TurboShareCom.class
jd/plugins/hoster/Home4FileCom.class
jd/plugins/hoster/ComputerCentralAustraliaCom.class
jd/plugins/hoster/ShareBombCom.class
jd/plugins/hoster/SharovarCom.class
jd/plugins/hoster/L4dModsCom.class
jd/plugins/hoster/CeknitoSk.class
jd/plugins/hoster/DropIo.class
jd/plugins/hoster/OneMbUpCom.class
jd/plugins/hoster/LoShareCom.class
jd/plugins/decrypter/LoShareComFolder.class
jd/plugins/hoster/DodajtoEu.class
jd/plugins/hoster/BabelZaptoOrgFfh.class
jd/plugins/hoster/MegaUpWs.class
jd/plugins/hoster/HosterTo.class
jd/plugins/hoster/UploadzTk.class
jd/plugins/hoster/FileStabCom.class
jd/plugins/hoster/ThreeHundredAndSixtyFiveFilesCom.class
jd/plugins/hoster/UpAvagaBy.class
jd/plugins/hoster/GigaFoundationDe.class
jd/plugins/decrypter/GigaFoundationDeDecrypter.class
jd/plugins/hoster/LikeFilesCom.class
jd/plugins/hoster/MangoShareCom.class
jd/plugins/hoster/PingHosterCom.class
jd/plugins/hoster/GigaFoundationDe.class
jd/plugins/hoster/GigaFoundationDe.class
jd/plugins/decrypter/UlCrptCm.class
jd/plugins/decrypter/CrptCm.class
jd/plugins/decrypter/FrstLnkzNt.class
jd/plugins/decrypter/TlnkrCm.class
jd/plugins/decrypter/LnkStackOrg.class
jd/plugins/decrypter/PrtctTOg.class
jd/captcha/methods/prtctt
jd/plugins/hoster/ImzUploadCom.class
jd/plugins/decrypter/Mg1280CmFldr.class
jd/plugins/decrypter/LstFmDe.class
jd/plugins/hoster/LastFm.class
jd/plugins/hoster/MujSouborCz.class
jd/plugins/hoster/AnyFilesNet.class
jd/plugins/hoster/NukeShareCom.class
jd/captcha/methods/4shrws
jd/plugins/hoster/UploadFaCom.class
jd/plugins/hoster/ShareBaseTo.class
jd/plugins/hoster/AppSceneOrg.class
jd/plugins/hoster/DivxUpFileCom.class
jd/plugins/hoster/MyStreamTo.class
jd/plugins/hoster/ComboZipCom.class
jd/plugins/decrypter/MvdD.class
jd/plugins/hoster/ShareCx.class
jd/plugins/decrypter/ShareCxFolder.class
jd/plugins/decrypter/DuckLoadComFolder.class
jd/plugins/hoster/DuckLoad.class
jd/plugins/decrypter/FrrlNt.class
jd/plugins/hoster/KeepFileCom.class
jd/plugins/hoster/UploadGe.class
jd/plugins/hoster/ShareUaCom.class
jd/plugins/hoster/ShareHosterDe.class
jd/captcha/methods/shrhstrd
jd/plugins/hoster/FileBaseTo.class
jd/captcha/methods/flbs
jd/plugins/hoster/LoadedIt.class
jd/plugins/hoster/SpeedLoadTo.class
jd/plugins/hoster/NetStorerCom.class
jd/plugins/hoster/MetaHyperCom.class
jd/plugins/hoster/QuickyShareCom.class
jd/plugins/hoster/UploadMachineCom.class
jd/plugins/hoster/YvhCc.class
jd/plugins/hoster/ExoShareCom.class
jd/plugins/hoster/FileStageTo.class
jd/plugins/hoster/UploadyTo.class
jd/plugins/hoster/QuickLoadTo.class
jd/plugins/hoster/ArchivTo.class
jd/plugins/hoster/ProfitUploadCom.class
jd/plugins/hoster/PiggyShareCom.class
jd/plugins/decrypter/PiggyShareComFolder.class
jd/plugins/hoster/MissUploadCom.class
jd/plugins/hoster/FullShareNet.class
jd/plugins/hoster/FileBlingCom.class
jd/plugins/hoster/AddatHu.class
jd/plugins/hoster/NextGenVidzCom.class
jd/plugins/hoster/MegaShareVn.class
jd/plugins/hoster/XFilesKz.class
jd/plugins/decrypter/UltraPrtcCom.class
jd/plugins/decrypter/MovStbeNt.class
jd/plugins/decrypter/DrDlm.class
jd/captcha/methods/ddlm
jd/plugins/hoster/WebShareNet.class
jd/captcha/methods/wbshrnt
jd/captcha/methods/frkshrnt
jd/captcha/methods/xflskcm
jd/captcha/methods/sxvdt
jd/plugins/hoster/VspaceCc.class
jd/plugins/decrypter/SxVdT.class
jd/plugins/decrypter/XfleSkCom.class
jd/captcha/methods/lphlnk
jd/plugins/decrypter/LphLnk.class
jd/captcha/methods/bgpld
jd/plugins/hoster/BigUploadCom.class
jd/captcha/methods/crptng
jd/plugins/decrypter/Crptngt.class
jd/plugins/decrypter/CrptBxCC.class
jd/plugins/decrypter/Xnkt.class
jd/captcha/methods/rlshld
jd/plugins/decrypter/RlShldnt.class
jd/captcha/methods/czshr
jd/captcha/methods/cllctrnt
jd/plugins/decrypter/Cllctr.class
jd/plugins/hoster/KewlshareCom.class
jd/plugins/decrypter/GooGl.class
jd/plugins/decrypter/ExUa.class
jd/plugins/decrypter/ZrScWs.class
jd/plugins/decrypter/Fl2pldNtFldr.class
jd/plugins/hoster/File2UploadDotNet.class
jd/plugins/hoster/LizShareCom.class
jd/plugins/hoster/BuFilesCom.class
jd/plugins/hoster/EasyShareCom.class
jd/plugins/hoster/Mega1280Com.class
jd/plugins/hoster/FileFrontCom.class
jd/plugins/hoster/MhfScriptBasic.class
jd/plugins/hoster/CashFileCom.class
jd/plugins/hoster/FileKeenCom.class
jd/plugins/hoster/MegaPornVideoCom.class
jd/plugins/hoster/MegaRapidEu.class
jd/plugins/hoster/LoadFilesIn.class
jd/plugins/hoster/GaiaFileCom.class
jd/plugins/hoster/FilezUpCom.class
jd/plugins/hoster/FileHookCom.class
jd/plugins/hoster/FilefrogTo.class
jd/plugins/hoster/BitLoadCom.class
jd/plugins/hoster/FileCrownCom.class
jd/plugins/hoster/BiggeruploadCom.class
jd/plugins/hoster/UgotFileCom.class
jd/plugins/hoster/UpFileIn.class
jd/plugins/hoster/UploadStoreNet.class
jd/plugins/decrypter/UploadStoreNetFolder.class
jd/captcha/methods/ugtf
jd/plugins/decrypter/CrstlWrzN.class
jd/captcha/methods/ggsz
jd/plugins/hoster/MafiaUploadCom.class
jd/captcha/methods/xmn
jd/plugins/decrypter/XeemIn.class
jd/plugins/decrypter/Fldck.class
jd/plugins/hoster/EmbedLoadCom.class
jd/plugins/hoster/FileVoCom.class
jd/plugins/hoster/FileMacCom.class
jd/plugins/hoster/MachUploadCom.class
jd/plugins/decrypter/SixMirrorsCom.class
jd/plugins/hoster/YouShareEu.class
jd/plugins/hoster/YourUploadDe.class
jd/plugins/hoster/Xun6Com.class
jd/captcha/methods/xn6cm
jd/plugins/hoster/XsharewareCom.class
jd/plugins/hoster/EnteruploadCom.class
jd/plugins/hoster/GrooveFileCom.class
jd/plugins/hoster/VistaUploadCom.class
jd/plugins/decrypter/FpsBananaCom.class
jd/plugins/hoster/FileshakerCom.class
jd/plugins/hoster/UploadHereCom.class
jd/plugins/hoster/UploadKingCom.class
jd/plugins/hoster/MultiUploadCom.class
jd/plugins/decrypter/MltpldCm.class
jd/plugins/decrypter/UndeadLinkCom.class
jd/plugins/decrypter/WCrptIn.class
jd/plugins/decrypter/LnkcltCm.class
jd/plugins/decrypter/FlZnR.class
jd/plugins/hoster/FileZoneRo.class
jd/plugins/decrypter/FourMuCm.class
jd/plugins/hoster/XSevenTo.class
jd/plugins/decrypter/X7ToFldr.class
jd/plugins/decrypter/MkiOg.class
jd/plugins/decrypter/Rs43Cm.class
jd/plugins/decrypter/Wb06d.class
jd/plugins/hoster/TenUploadCom.class
jd/plugins/decrypter/SagStbeToDl.class
jd/plugins/decrypter/LixkMe.class
jd/plugins/decrypter/FilkeHookComFolder.class
jd/plugins/decrypter/FcTv.class
jd/plugins/hoster/BulletUploadCom.class
jd/plugins/decrypter/SkipFileComUser.class
jd/plugins/hoster/SkipFileCom.class
jd/plugins/hoster/Usershare.class
jd/plugins/hoster/SupaShareNet.class
jd/captcha/methods/rlcrpt
jd/captcha/methods/pldbx
jd/plugins/hoster/UploadBoxCom.class
jd/plugins/hoster/TabNetUa.class
jd/captcha/methods/tbnt
jd/plugins/hoster/LetitFileRu.class
jd/captcha/methods/lttflr
jd/captcha/methods/pnflr
jd/plugins/hoster/OpenFileRu.class
jd/plugins/hoster/FileSurfRu.class
jd/captcha/methods/flsrf
jd/plugins/decrypter/Sldn.class
jd/captcha/methods/sld
jd/captcha/methods/fl
jd/plugins/hoster/ShareHutCom.class
jd/plugins/hoster/ShareHubCom.class
jd/plugins/hoster/GotUploadCom.class
jd/plugins/hoster/FyelsCom.class
jd/plugins/decrypter/HdLnkngCom.class
jd/plugins/decrypter/Hsbstzcm.class
jd/plugins/decrypter/ImageWasteComGallery.class
jd/plugins/hoster/ImageWasteCom.class
jd/plugins/hoster/FilezzzCom.class
jd/plugins/hoster/FileApeCom.class
jd/plugins/hoster/Fik1Com.class
jd/plugins/hoster/DaTumBitCom.class
jd/plugins/decrypter/ImageMinxCom.class
jd/plugins/decrypter/KnfflCm.class
jd/plugins/decrypter/Mov7Org.class
jd/plugins/decrypter/Mp3Lnkrg.class
jd/plugins/hoster/FilesNambaKz.class
jd/plugins/decrypter/GmdMscCm.class
jd/plugins/decrypter/CrptTo.class
jd/captcha/methods/cryptt
jd/plugins/decrypter/Lctr2GoUHH.class
jd/plugins/hoster/Upload24Net.class
jd/plugins/decrypter/LnkBCm.class
jd/plugins/hoster/BatubiaCom.class
jd/plugins/hoster/MegaFreeKz.class
jd/plugins/decrypter/FuHdBz.class
jd/plugins/decrypter/RsLrCm.class
jd/captcha/methods/rslr
jd/plugins/hoster/Uploading4UCom.class
jd/plugins/hoster/ZShareNet.class
jd/plugins/hoster/CumCom.class
jd/plugins/hoster/Megauploadcom.class
jd/plugins/hoster/MegaVideo.class
jd/captcha/methods/mgpld
jd/plugins/decrypter/MgpldCmFldr.class
jd/plugins/decrypter/Load2Me.class
jd/plugins/hoster/FilePlanetComUa.class
jd/plugins/decrypter/MdfBtCom.class
jd/plugins/decrypter/MscPrtsOrg.class
jd/plugins/decrypter/MultiFileAm.class
jd/plugins/decrypter/MllGnCm.class
jd/plugins/decrypter/IshareIaskSinaComCnFolder.class
jd/plugins/hoster/IshareIaskSinaComCn.class
jd/plugins/decrypter/MgcMsCm.class
jd/plugins/hoster/PlatinShareCom.class
jd/plugins/decrypter/MyGkWs.class
jd/captcha/methods/prtctmylnkscm
jd/plugins/hoster/MountFileCom.class
jd/plugins/decrypter/PlsssftsNt.class
jd/plugins/decrypter/SveLnksRu.class
jd/plugins/decrypter/LdT.class
jd/plugins/decrypter/LdTTemp.class
jd/plugins/decrypter/VtXn.class
jd/plugins/decrypter/WckdWsl.class
jd/plugins/decrypter/UTl.class
jd/plugins/hoster/DdlAnimeCom.class